Sistemas Digitais/Cronometro-Verilog/simulation/qsim/fsm.msim.vcd
$comment
	File created using the following command:
		vcd file fsm.msim.vcd -direction
$end
$date
	Mon Apr 26 14:49:10 2021
$end
$version
	ModelSim Version 10.5b
$end
$timescale
	1ps
$end

$scope module fsm_vlg_vec_tst $end
$var reg 1 ! clock $end
$var reg 1 " key0 $end
$var reg 1 # key1 $end
$var reg 1 $ key2 $end
$var reg 1 % key3 $end
$var wire 1 & out0 [3] $end
$var wire 1 ' out0 [2] $end
$var wire 1 ( out0 [1] $end
$var wire 1 ) out0 [0] $end
$var wire 1 * out1 [3] $end
$var wire 1 + out1 [2] $end
$var wire 1 , out1 [1] $end
$var wire 1 - out1 [0] $end
$var wire 1 . out2 [3] $end
$var wire 1 / out2 [2] $end
$var wire 1 0 out2 [1] $end
$var wire 1 1 out2 [0] $end
$var wire 1 2 out3 [3] $end
$var wire 1 3 out3 [2] $end
$var wire 1 4 out3 [1] $end
$var wire 1 5 out3 [0] $end

$scope module i1 $end
$var wire 1 6 gnd $end
$var wire 1 7 vcc $end
$var wire 1 8 unknown $end
$var tri1 1 9 devclrn $end
$var tri1 1 : devpor $end
$var tri1 1 ; devoe $end
$var wire 1 < out0[0]~output_o $end
$var wire 1 = out0[1]~output_o $end
$var wire 1 > out0[2]~output_o $end
$var wire 1 ? out0[3]~output_o $end
$var wire 1 @ out1[0]~output_o $end
$var wire 1 A out1[1]~output_o $end
$var wire 1 B out1[2]~output_o $end
$var wire 1 C out1[3]~output_o $end
$var wire 1 D out2[0]~output_o $end
$var wire 1 E out2[1]~output_o $end
$var wire 1 F out2[2]~output_o $end
$var wire 1 G out2[3]~output_o $end
$var wire 1 H out3[0]~output_o $end
$var wire 1 I out3[1]~output_o $end
$var wire 1 J out3[2]~output_o $end
$var wire 1 K out3[3]~output_o $end
$var wire 1 L clock~input_o $end
$var wire 1 M clock~inputclkctrl_outclk $end
$var wire 1 N estado_atual.pausar~q $end
$var wire 1 O key2~input_o $end
$var wire 1 P key_contar~feeder_combout $end
$var wire 1 Q key_contar~q $end
$var wire 1 R key1~input_o $end
$var wire 1 S key_pausar~feeder_combout $end
$var wire 1 T key_pausar~q $end
$var wire 1 U key3~input_o $end
$var wire 1 V key_reset~feeder_combout $end
$var wire 1 W key_reset~q $end
$var wire 1 X prox_estado.00~0_combout $end
$var wire 1 Y prox_estado.00~0clkctrl_outclk $end
$var wire 1 Z prox_estado.contar~0_combout $end
$var wire 1 [ key0~input_o $end
$var wire 1 \ key_parar~feeder_combout $end
$var wire 1 ] key_parar~q $end
$var wire 1 ^ prox_estado.contar_532~combout $end
$var wire 1 _ estado_atual.contar~q $end
$var wire 1 ` prox_estado.pausar~0_combout $end
$var wire 1 a prox_estado.pausar_524~combout $end
$var wire 1 b prox_estado.parar~0_combout $end
$var wire 1 c prox_estado.parar_516~combout $end
$var wire 1 d estado_atual.parar~q $end
$var wire 1 e always0~2_combout $end
$var wire 1 f aux_para0~2_combout $end
$var wire 1 g prox_estado.00~1_combout $end
$var wire 1 h prox_estado.00_540~combout $end
$var wire 1 i estado_atual.00~0_combout $end
$var wire 1 j estado_atual.00~q $end
$var wire 1 k aux_para2~0_combout $end
$var wire 1 l aux_para0~3_combout $end
$var wire 1 m cont0~14_combout $end
$var wire 1 n always0~4_combout $end
$var wire 1 o cont0~12_combout $end
$var wire 1 p aux_para0~6_combout $end
$var wire 1 q aux_para0~7_combout $end
$var wire 1 r cont0~16_combout $end
$var wire 1 s Add3~0_combout $end
$var wire 1 t cont0~13_combout $end
$var wire 1 u aux_para0~4_combout $end
$var wire 1 v aux_para0~5_combout $end
$var wire 1 w cont0~15_combout $end
$var wire 1 x Add3~1_combout $end
$var wire 1 y cont0~19_combout $end
$var wire 1 z aux_para0~8_combout $end
$var wire 1 { aux_para0~9_combout $end
$var wire 1 | cont0~17_combout $end
$var wire 1 } Equal0~0_combout $end
$var wire 1 ~ cont0~18_combout $end
$var wire 1 !! Selector3~0_combout $end
$var wire 1 "! Selector3~1_combout $end
$var wire 1 #! Selector2~0_combout $end
$var wire 1 $! Selector2~1_combout $end
$var wire 1 %! Selector1~0_combout $end
$var wire 1 &! Selector1~1_combout $end
$var wire 1 '! Selector0~0_combout $end
$var wire 1 (! Selector0~1_combout $end
$var wire 1 )! aux_para1~0_combout $end
$var wire 1 *! aux_para1~1_combout $end
$var wire 1 +! cont1~19_combout $end
$var wire 1 ,! aux_para1~6_combout $end
$var wire 1 -! aux_para1~7_combout $end
$var wire 1 .! cont1~20_combout $end
$var wire 1 /! cont1[0]~21_combout $end
$var wire 1 0! cont1~14_combout $end
$var wire 1 1! aux_para1~4_combout $end
$var wire 1 2! aux_para1~5_combout $end
$var wire 1 3! cont1~22_combout $end
$var wire 1 4! Add2~0_combout $end
$var wire 1 5! cont1~15_combout $end
$var wire 1 6! aux_para1~2_combout $end
$var wire 1 7! aux_para1~3_combout $end
$var wire 1 8! cont1~18_combout $end
$var wire 1 9! Add2~1_combout $end
$var wire 1 :! cont1~16_combout $end
$var wire 1 ;! cont1[0]~10_combout $end
$var wire 1 <! always0~3_combout $end
$var wire 1 =! cont1[0]~11_combout $end
$var wire 1 >! cont1[0]~12_combout $end
$var wire 1 ?! cont1~13_combout $end
$var wire 1 @! Selector7~0_combout $end
$var wire 1 A! Selector7~1_combout $end
$var wire 1 B! Selector6~0_combout $end
$var wire 1 C! Selector6~1_combout $end
$var wire 1 D! Selector5~0_combout $end
$var wire 1 E! Selector5~1_combout $end
$var wire 1 F! Selector4~0_combout $end
$var wire 1 G! Selector4~1_combout $end
$var wire 1 H! cont2~15_combout $end
$var wire 1 I! cont2~8_combout $end
$var wire 1 J! aux_para2~1_combout $end
$var wire 1 K! aux_para2~2_combout $end
$var wire 1 L! Selector11~0_combout $end
$var wire 1 M! Selector11~1_combout $end
$var wire 1 N! cont2~16_combout $end
$var wire 1 O! cont1[0]~17_combout $end
$var wire 1 P! Add1~0_combout $end
$var wire 1 Q! cont2~12_combout $end
$var wire 1 R! aux_para2~7_combout $end
$var wire 1 S! aux_para2~8_combout $end
$var wire 1 T! cont2~18_combout $end
$var wire 1 U! Add1~1_combout $end
$var wire 1 V! cont2~13_combout $end
$var wire 1 W! aux_para2~5_combout $end
$var wire 1 X! aux_para2~6_combout $end
$var wire 1 Y! cont2~17_combout $end
$var wire 1 Z! cont2[0]~9_combout $end
$var wire 1 [! cont2[0]~10_combout $end
$var wire 1 \! cont2~11_combout $end
$var wire 1 ]! aux_para2~3_combout $end
$var wire 1 ^! aux_para2~4_combout $end
$var wire 1 _! Selector10~0_combout $end
$var wire 1 `! Selector10~1_combout $end
$var wire 1 a! Selector9~0_combout $end
$var wire 1 b! Selector9~1_combout $end
$var wire 1 c! Selector8~0_combout $end
$var wire 1 d! Selector8~1_combout $end
$var wire 1 e! cont3~14_combout $end
$var wire 1 f! cont2[0]~14_combout $end
$var wire 1 g! cont3[1]~10_combout $end
$var wire 1 h! cont3~11_combout $end
$var wire 1 i! aux_para3~6_combout $end
$var wire 1 j! aux_para3~7_combout $end
$var wire 1 k! cont3~17_combout $end
$var wire 1 l! Add0~0_combout $end
$var wire 1 m! cont3~12_combout $end
$var wire 1 n! aux_para3~4_combout $end
$var wire 1 o! aux_para3~5_combout $end
$var wire 1 p! cont3~16_combout $end
$var wire 1 q! Add0~1_combout $end
$var wire 1 r! cont3~13_combout $end
$var wire 1 s! aux_para3~2_combout $end
$var wire 1 t! aux_para3~3_combout $end
$var wire 1 u! cont3~15_combout $end
$var wire 1 v! cont3[1]~8_combout $end
$var wire 1 w! cont3~9_combout $end
$var wire 1 x! aux_para3~0_combout $end
$var wire 1 y! aux_para3~1_combout $end
$var wire 1 z! Selector15~0_combout $end
$var wire 1 {! Selector15~1_combout $end
$var wire 1 |! Selector14~0_combout $end
$var wire 1 }! Selector14~1_combout $end
$var wire 1 ~! Selector13~0_combout $end
$var wire 1 !" Selector13~1_combout $end
$var wire 1 "" Selector12~0_combout $end
$var wire 1 #" Selector12~1_combout $end
$var wire 1 $" cont0 [3] $end
$var wire 1 %" cont0 [2] $end
$var wire 1 &" cont0 [1] $end
$var wire 1 '" cont0 [0] $end
$var wire 1 (" aux_para0 [3] $end
$var wire 1 )" aux_para0 [2] $end
$var wire 1 *" aux_para0 [1] $end
$var wire 1 +" aux_para0 [0] $end
$var wire 1 ," aux_pausa0 [3] $end
$var wire 1 -" aux_pausa0 [2] $end
$var wire 1 ." aux_pausa0 [1] $end
$var wire 1 /" aux_pausa0 [0] $end
$var wire 1 0" cont1 [3] $end
$var wire 1 1" cont1 [2] $end
$var wire 1 2" cont1 [1] $end
$var wire 1 3" cont1 [0] $end
$var wire 1 4" aux_para1 [3] $end
$var wire 1 5" aux_para1 [2] $end
$var wire 1 6" aux_para1 [1] $end
$var wire 1 7" aux_para1 [0] $end
$var wire 1 8" aux_pausa1 [3] $end
$var wire 1 9" aux_pausa1 [2] $end
$var wire 1 :" aux_pausa1 [1] $end
$var wire 1 ;" aux_pausa1 [0] $end
$var wire 1 <" cont2 [3] $end
$var wire 1 =" cont2 [2] $end
$var wire 1 >" cont2 [1] $end
$var wire 1 ?" cont2 [0] $end
$var wire 1 @" aux_para2 [3] $end
$var wire 1 A" aux_para2 [2] $end
$var wire 1 B" aux_para2 [1] $end
$var wire 1 C" aux_para2 [0] $end
$var wire 1 D" aux_pausa2 [3] $end
$var wire 1 E" aux_pausa2 [2] $end
$var wire 1 F" aux_pausa2 [1] $end
$var wire 1 G" aux_pausa2 [0] $end
$var wire 1 H" aux_para3 [3] $end
$var wire 1 I" aux_para3 [2] $end
$var wire 1 J" aux_para3 [1] $end
$var wire 1 K" aux_para3 [0] $end
$var wire 1 L" aux_pausa3 [3] $end
$var wire 1 M" aux_pausa3 [2] $end
$var wire 1 N" aux_pausa3 [1] $end
$var wire 1 O" aux_pausa3 [0] $end
$var wire 1 P" cont3 [3] $end
$var wire 1 Q" cont3 [2] $end
$var wire 1 R" cont3 [1] $end
$var wire 1 S" cont3 [0] $end
$upscope $end
$upscope $end
$enddefinitions $end
#0
$dumpvars
0!
1"
1#
1$
0%
0)
0(
0'
0&
0-
0,
0+
0*
01
00
0/
0.
05
04
03
02
06
17
x8
19
1:
1;
0<
0=
0>
0?
0@
0A
0B
0C
0D
0E
0F
0G
0H
0I
0J
0K
0L
0M
0N
1O
1P
0Q
1R
1S
0T
0U
1V
0W
0X
0Y
0Z
1[
1\
0]
x^
0_
0`
xa
0b
xc
0d
0e
0f
0g
xh
xi
0j
xk
0l
0m
xn
0o
0p
0q
0r
0s
0t
0u
0v
0w
0x
0y
0z
0{
0|
1}
x~
0!!
0"!
0#!
0$!
0%!
0&!
0'!
0(!
0)!
0*!
0+!
0,!
0-!
0.!
x/!
00!
01!
02!
03!
04!
05!
06!
07!
08!
09!
0:!
0;!
0<!
0=!
0>!
0?!
0@!
0A!
0B!
0C!
0D!
0E!
0F!
0G!
0H!
0I!
0J!
0K!
0L!
0M!
0N!
0O!
0P!
0Q!
0R!
0S!
0T!
0U!
0V!
0W!
0X!
0Y!
0Z!
x[!
0\!
0]!
0^!
0_!
0`!
0a!
0b!
0c!
0d!
0e!
0f!
xg!
0h!
0i!
0j!
0k!
0l!
0m!
0n!
0o!
0p!
0q!
0r!
0s!
0t!
0u!
0v!
0w!
0x!
0y!
0z!
0{!
0|!
0}!
0~!
0!"
0""
0#"
0'"
0&"
0%"
0$"
0+"
0*"
0)"
0("
0/"
0."
0-"
0,"
03"
02"
01"
00"
07"
06"
05"
04"
0;"
0:"
09"
08"
0?"
0>"
0="
0<"
0C"
0B"
0A"
0@"
0G"
0F"
0E"
0D"
0K"
0J"
0I"
0H"
0O"
0N"
0M"
0L"
0S"
0R"
0Q"
0P"
$end
#10000
1!
1%
1L
1M
1U
x'"
xj
xd
x_
xN
1W
x!!
xm
xf
x<!
xe
1X
1Y
xl
1h
0c
0a
0^
x"!
xo
x<
0l
1k
1/!
1n
0e
0<!
x)
0i
0~
1g!
1[!
0o
0W
0X
0Y
#20000
0!
0L
0M
#30000
0$
1!
1L
1M
0O
0'"
0j
0d
0_
0N
0!!
0m
0f
0"!
0<
0)
#40000
1$
0!
0L
0M
1O
1Q
1g
1Z
1X
1Y
0h
1^
0/!
0n
1i
1~
0g!
0[!
0Q
0g
0Z
0X
0Y
#50000
1!
1L
1M
1'"
1j
1_
1!!
1m
1f
1"!
0~
1o
1<
1)
#60000
0!
0L
0M
#70000
1!
1L
1M
0'"
1&"
0!!
0m
0f
1#!
1r
1p
0"!
1~
1$!
1=
0<
0)
1(
#80000
0!
0L
0M
#90000
1!
1L
1M
1'"
1!!
1m
1f
1s
1"!
0~
0o
1<
1)
1t
#100000
0!
0L
0M
#110000
1!
1L
1M
0'"
1%"
0&"
0!!
0m
0f
1%!
1w
1u
0#!
0r
0p
0s
0"!
1~
1&!
0t
0$!
0=
1>
0<
0)
1'
0(
1t
#120000
0!
0L
0M
#130000
1!
1L
1M
1'"
1!!
1m
1f
1"!
0~
1o
1<
1)
#140000
0!
0L
0M
#150000
1!
1L
1M
0'"
1&"
0!!
0m
0f
1#!
1r
1p
0"!
1~
1$!
1=
0<
0)
1(
#160000
0"
0!
0L
0M
0[
#170000
1!
1L
1M
1'"
1!!
1m
1f
1x
1s
1"!
0~
0o
1<
1)
1y
0t
#180000
1"
0!
0L
0M
1[
1]
1c
0^
1v
1q
1l
0k
1/!
1n
0y
1g!
1[!
0]
#190000
1!
1L
1M
0'"
1)"
0%"
1*"
0&"
1+"
1d
0_
0!!
0m
0f
0%!
0w
0u
0#!
0r
0p
1k
0x
0s
#200000
0!
0L
0M
#210000
1!
1L
1M
#220000
0!
0L
0M
#230000
1!
1L
1M
#240000
0!
0L
0M
#250000
0$
1!
1L
1M
0O
#260000
1$
0!
0L
0M
1O
1Q
1g
1Z
1X
1Y
1^
0c
1<!
0/!
1w
1r
0n
1m
1~
1x
1s
0g!
0[!
1t
0~
1y
0t
0Q
0g
0Z
0X
0Y
#270000
1!
1L
1M
1$"
0d
1_
1'!
1|
1z
0<!
0w
0r
0m
0&!
0$!
0"!
0<
0=
0>
0s
0'
0(
0)
1(!
1t
1~
1?
1&
0t
#280000
0!
0L
0M
#290000
1!
1L
1M
1'"
1!!
1m
1f
0}
1"!
0~
1o
1<
1)
1?!
0y
0o
#300000
0!
0L
0M
#310000
1!
1L
1M
13"
0'"
0$"
1@!
1+!
1)!
0!!
0m
0f
0'!
0|
0z
1}
0x
1A!
0?!
10!
0"!
0(!
0?
0<
1@
1-
0)
0&
1?!
00!
1~
#320000
0!
0L
0M
#330000
0#
1!
1L
1M
0R
1'"
1!!
1m
1f
1"!
0~
1o
1<
1)
#340000
0!
0L
0M
#350000
1!
1L
1M
0'"
1&"
0!!
0m
0f
1#!
1r
1p
0"!
1~
1$!
1=
0<
0)
1(
#360000
1#
0!
0L
0M
1R
1T
1g
1`
1X
1Y
1a
0^
1e
0T
0g
0`
0X
0Y
#370000
1!
1L
1M
1;"
1'"
1."
0_
1N
1m
0e
1s
0~
0o
1t
#380000
0!
0L
0M
#390000
1!
1L
1M
0'"
1%"
0&"
0m
1w
0r
0s
1~
0t
1t
#400000
0!
0L
0M
#410000
1!
1L
1M
1'"
1m
0~
1o
#420000
0!
0L
0M
#430000
1!
1L
1M
0'"
1&"
0m
1r
1~
#440000
0!
0L
0M
#450000
0$
1!
1L
1M
0O
1'"
1m
1x
1s
0~
0o
1y
0t
#460000
0!
0L
0M
#470000
1!
1L
1M
0'"
1$"
0%"
0&"
0m
1|
0w
0r
0s
1~
1t
0t
#480000
1$
0!
0L
0M
1O
1Q
1g
1`
1X
1Y
0Q
0g
0`
0X
0Y
#490000
1!
1L
1M
1'"
1m
0}
0~
1o
0?!
10!
0y
0o
#500000
0!
0L
0M
#510000
1!
1L
1M
03"
12"
0'"
0$"
0+!
1.!
0m
0|
1}
0x
1?!
0?!
1~
#520000
0!
0L
0M
#530000
1!
1L
1M
1'"
1m
0~
1o
#540000
0!
0L
0M
#550000
1!
1L
1M
0'"
1&"
0m
1r
1~
#560000
0!
0L
0M
#570000
1!
1L
1M
1'"
1m
1s
0~
0o
1t
#580000
0!
0L
0M
#590000
0#
1!
1L
1M
0R
0'"
1%"
0&"
0m
1w
0r
0s
1~
0t
1t
#600000
0!
0L
0M
#610000
1#
1!
1L
1M
1R
1'"
1T
1m
1g
1Z
1X
1Y
1^
0a
0~
1o
0T
0g
0Z
0X
0Y
#620000
0!
0L
0M
#630000
1!
1L
1M
0'"
1&"
1_
0N
0m
1r
1B!
0@!
1,!
0)!
1%!
1u
1~
1C!
0A!
1&!
1>
0@
1A
1,
0-
1'
#640000
0!
0L
0M
#650000
1!
1L
1M
1'"
1!!
1m
1f
1x
1s
1"!
0~
0o
1<
1)
1y
0t
#660000
0!
0L
0M
#670000
1!
1L
1M
0'"
1$"
0%"
0&"
0!!
0m
0f
1'!
1|
1z
0%!
0w
0u
0#!
0r
0p
0s
0"!
1~
1(!
0&!
1t
0$!
0=
0>
1?
0<
0)
1&
0'
0(
0t
#680000
0!
0L
0M
#690000
1!
1L
1M
1'"
1!!
1m
1f
0}
1"!
0~
1o
1<
1)
1?!
0y
0o
#700000
0!
0L
0M
#710000
1!
1L
1M
13"
0'"
0$"
1@!
1+!
1)!
0!!
0m
0f
0'!
0|
0z
14!
1}
0x
1A!
0?!
00!
0"!
0(!
0?
0<
1@
1-
0)
0&
1?!
10!
1~
#720000
0!
0L
0M
#730000
1!
1L
1M
1'"
1!!
1m
1f
1"!
0~
1o
1<
1)
#740000
0!
0L
0M
#750000
1!
1L
1M
0'"
1&"
0!!
0m
0f
1#!
1r
1p
0"!
1~
1$!
1=
0<
0)
1(
#760000
0!
0L
0M
#770000
1!
1L
1M
1'"
1!!
1m
1f
1s
1"!
0~
0o
1<
1)
1t
#780000
0!
0L
0M
#790000
1!
1L
1M
0'"
1%"
0&"
0!!
0m
0f
1%!
1w
1u
0#!
0r
0p
0s
0"!
1~
1&!
0t
0$!
0=
1>
0<
0)
1'
0(
1t
#800000
0!
0L
0M
#810000
0%
1!
1L
1M
0U
1'"
1!!
1m
1f
1"!
0~
1o
1<
1)
#820000
0!
0L
0M
#830000
1!
1L
1M
0'"
1&"
0!!
0m
0f
1#!
1r
1p
0"!
1~
1$!
1=
0<
0)
1(
#840000
0!
0L
0M
#850000
1%
1!
1L
1M
1U
1'"
1W
1!!
1m
1f
1X
1Y
1x
1s
1h
0^
1"!
0~
0o
1<
1/!
1n
1)
0t
0i
1g!
1[!
00!
0?!
0W
0X
0Y
#860000
0!
0L
0M
#870000
1!
1L
1M
03"
02"
0'"
0%"
0&"
0j
0_
0@!
0+!
0)!
0B!
0.!
0,!
0!!
0m
0f
0%!
0w
0u
0#!
0r
0p
04!
0x
0s
0A!
0C!
0"!
0&!
0$!
0=
0>
0<
0A
0@
0-
0,
0)
0'
0(
#880000
0!
0L
0M
#890000
1!
1L
1M
#900000
0!
0L
0M
#910000
1!
1L
1M
#920000
0!
0L
0M
#930000
1!
1L
1M
#940000
0!
0L
0M
#950000
1!
1L
1M
#960000
0!
0L
0M
#970000
1!
1L
1M
#980000
0!
0L
0M
#990000
1!
1L
1M
